Library\Bee\artifacts\mvdfrm\Unity.2D.Animation.Editor.ref.dll_A13BD6459BB26E0B.mvfrm
Library\Bee\artifacts\mvdfrm\Unity.2D.Animation.Runtime.ref.dll_6747672A37E369F0.mvfrm
Library\Bee\artifacts\mvdfrm\Unity.2D.Common.Editor.ref.dll_BD59A5CBF9D52B22.mvfrm
Library\Bee\artifacts\mvdfrm\Unity.2D.Sprite.Editor.ref.dll_DDBAA27A82CE9E28.mvfrm
Library\Bee\artifacts\mvdfrm\Unity.Burst.ref.dll_F30DFA20C0DD1968.mvfrm
Library\Bee\artifacts\mvdfrm\Unity.InternalAPIEditorBridge.001.ref.dll_C275F416F58A86FE.mvfrm
Library\Bee\artifacts\mvdfrm\Unity.InternalAPIEngineBridge.001.ref.dll_B4F0ACC15A996E43.mvfrm
Library\Bee\artifacts\mvdfrm\Unity.Mathematics.ref.dll_E8EFDB1B8D5C174E.mvfrm
Library\Bee\artifacts\mvdfrm\UnityEditor.TestRunner.ref.dll_193EC4CE382CBFB3.mvfrm
Library\Bee\artifacts\mvdfrm\UnityEditor.UI.ref.dll_4C98D3F7040CD4F5.mvfrm
Library\Bee\artifacts\mvdfrm\UnityEngine.TestRunner.ref.dll_E55D0F7C63F01D9E.mvfrm
Library\Bee\artifacts\mvdfrm\UnityEngine.UI.ref.dll_08FEAA520A2EFD60.mvfrm
Library\Bee\artifacts\mvdfrm\UnityEditor.Graphs.dll_09FF931239AE52A0.mvfrm
Library\Bee\artifacts\mvdfrm\UnityEditor.CoreModule.dll_C05B71F334DBB66E.mvfrm
Library\Bee\artifacts\mvdfrm\UnityEditor.DeviceSimulatorModule.dll_650E0076105924B3.mvfrm
Library\Bee\artifacts\mvdfrm\UnityEditor.DiagnosticsModule.dll_61465BE45F307241.mvfrm
Library\Bee\artifacts\mvdfrm\UnityEditor.dll_CEEEC75F4753E7C7.mvfrm
Library\Bee\artifacts\mvdfrm\UnityEditor.GraphViewModule.dll_77C5CAF8DE6C57F8.mvfrm
Library\Bee\artifacts\mvdfrm\UnityEditor.PackageManagerUIModule.dll_5AE4BE014E2B064A.mvfrm
Library\Bee\artifacts\mvdfrm\UnityEditor.QuickSearchModule.dll_EC55DCF1B8076E9A.mvfrm
Library\Bee\artifacts\mvdfrm\UnityEditor.SceneTemplateModule.dll_C388C6290D65E45B.mvfrm
Library\Bee\artifacts\mvdfrm\UnityEditor.TextCoreFontEngineModule.dll_EA391793CCB2B42C.mvfrm
Library\Bee\artifacts\mvdfrm\UnityEditor.TextCoreTextEngineModule.dll_32214E055C366D4A.mvfrm
Library\Bee\artifacts\mvdfrm\UnityEditor.UIBuilderModule.dll_CC4E78155124D12C.mvfrm
Library\Bee\artifacts\mvdfrm\UnityEditor.UIElementsModule.dll_3AC83E1AA3DCDAEA.mvfrm
Library\Bee\artifacts\mvdfrm\UnityEditor.UIElementsSamplesModule.dll_B63E0CA6FD022323.mvfrm
Library\Bee\artifacts\mvdfrm\UnityEditor.UIServiceModule.dll_054089783A5C2146.mvfrm
Library\Bee\artifacts\mvdfrm\UnityEditor.UnityConnectModule.dll_57CD3355013D9C24.mvfrm
Library\Bee\artifacts\mvdfrm\UnityEngine.AccessibilityModule.dll_F62E31C00DDC0BF8.mvfrm
Library\Bee\artifacts\mvdfrm\UnityEngine.AIModule.dll_0BF100CC024E0302.mvfrm
Library\Bee\artifacts\mvdfrm\UnityEngine.AndroidJNIModule.dll_B91126EDECFC49C0.mvfrm
Library\Bee\artifacts\mvdfrm\UnityEngine.AnimationModule.dll_464B4721B8C92C9E.mvfrm
Library\Bee\artifacts\mvdfrm\UnityEngine.ARModule.dll_C563C5CF5F6B61CB.mvfrm
Library\Bee\artifacts\mvdfrm\UnityEngine.AssetBundleModule.dll_303F0FE31A6E238C.mvfrm
Library\Bee\artifacts\mvdfrm\UnityEngine.AudioModule.dll_97313FC91DB13610.mvfrm
Library\Bee\artifacts\mvdfrm\UnityEngine.ClothModule.dll_FE199CC3F7CE14F4.mvfrm
Library\Bee\artifacts\mvdfrm\UnityEngine.ClusterInputModule.dll_D769A86AB2C56EEA.mvfrm
Library\Bee\artifacts\mvdfrm\UnityEngine.ClusterRendererModule.dll_6ABAC2E780143237.mvfrm
Library\Bee\artifacts\mvdfrm\UnityEngine.CoreModule.dll_E37C4545DCE12199.mvfrm
Library\Bee\artifacts\mvdfrm\UnityEngine.CrashReportingModule.dll_568E31BF53A22ED1.mvfrm
Library\Bee\artifacts\mvdfrm\UnityEngine.DirectorModule.dll_C1F3A20D6DC88DF6.mvfrm
Library\Bee\artifacts\mvdfrm\UnityEngine.dll_01930E37A5C774AC.mvfrm
Library\Bee\artifacts\mvdfrm\UnityEngine.DSPGraphModule.dll_C7450376E0295F17.mvfrm
Library\Bee\artifacts\mvdfrm\UnityEngine.GameCenterModule.dll_E35E7108B33D3AB1.mvfrm
Library\Bee\artifacts\mvdfrm\UnityEngine.GIModule.dll_A42D49D99DFCEB1C.mvfrm
Library\Bee\artifacts\mvdfrm\UnityEngine.GridModule.dll_C0ED6133F535B790.mvfrm
Library\Bee\artifacts\mvdfrm\UnityEngine.HotReloadModule.dll_C794052793FC4820.mvfrm
Library\Bee\artifacts\mvdfrm\UnityEngine.ImageConversionModule.dll_D6ACC0980238EA2B.mvfrm
Library\Bee\artifacts\mvdfrm\UnityEngine.IMGUIModule.dll_CF90DF2FE3E2C9F1.mvfrm
Library\Bee\artifacts\mvdfrm\UnityEngine.InputLegacyModule.dll_C1842B01B25FD97D.mvfrm
Library\Bee\artifacts\mvdfrm\UnityEngine.InputModule.dll_FDA7077993E95AB4.mvfrm
Library\Bee\artifacts\mvdfrm\UnityEngine.JSONSerializeModule.dll_5645BAFC0D176C82.mvfrm
Library\Bee\artifacts\mvdfrm\UnityEngine.LocalizationModule.dll_15B672BD4A4161E3.mvfrm
Library\Bee\artifacts\mvdfrm\UnityEngine.NVIDIAModule.dll_1BC46A7C2D287325.mvfrm
Library\Bee\artifacts\mvdfrm\UnityEngine.ParticleSystemModule.dll_A9A07B0BC1B3BA5F.mvfrm
Library\Bee\artifacts\mvdfrm\UnityEngine.PerformanceReportingModule.dll_6B3E5BA1A95E8F58.mvfrm
Library\Bee\artifacts\mvdfrm\UnityEngine.Physics2DModule.dll_92F1371259C62433.mvfrm
Library\Bee\artifacts\mvdfrm\UnityEngine.PhysicsModule.dll_EBFBC84AFCB342E1.mvfrm
Library\Bee\artifacts\mvdfrm\UnityEngine.ProfilerModule.dll_F439DB4407221503.mvfrm
Library\Bee\artifacts\mvdfrm\UnityEngine.RuntimeInitializeOnLoadManagerInitializerModule.dll_A807AC4673447AFC.mvfrm
Library\Bee\artifacts\mvdfrm\UnityEngine.ScreenCaptureModule.dll_702D6881218398E4.mvfrm
Library\Bee\artifacts\mvdfrm\UnityEngine.SharedInternalsModule.dll_5ABDFF6D7966E57B.mvfrm
Library\Bee\artifacts\mvdfrm\UnityEngine.SpriteMaskModule.dll_CC8AE398D4ACD02B.mvfrm
Library\Bee\artifacts\mvdfrm\UnityEngine.SpriteShapeModule.dll_49A03D3DD0105B96.mvfrm
Library\Bee\artifacts\mvdfrm\UnityEngine.StreamingModule.dll_FAE034720850E3DC.mvfrm
Library\Bee\artifacts\mvdfrm\UnityEngine.SubstanceModule.dll_D78B48BB53A3E1EA.mvfrm
Library\Bee\artifacts\mvdfrm\UnityEngine.SubsystemsModule.dll_373849FAA2F4B83E.mvfrm
Library\Bee\artifacts\mvdfrm\UnityEngine.TerrainModule.dll_064243B9D2718BCF.mvfrm
Library\Bee\artifacts\mvdfrm\UnityEngine.TerrainPhysicsModule.dll_AA1B23DEDAF6B4EC.mvfrm
Library\Bee\artifacts\mvdfrm\UnityEngine.TextCoreFontEngineModule.dll_689892E6DFB072F7.mvfrm
Library\Bee\artifacts\mvdfrm\UnityEngine.TextCoreTextEngineModule.dll_B080C9586F342C15.mvfrm
Library\Bee\artifacts\mvdfrm\UnityEngine.TextRenderingModule.dll_996CDA8BD8BB18D9.mvfrm
Library\Bee\artifacts\mvdfrm\UnityEngine.TilemapModule.dll_A53EAB3AEA2E6CD8.mvfrm
Library\Bee\artifacts\mvdfrm\UnityEngine.TLSModule.dll_34DFFA7436D47375.mvfrm
Library\Bee\artifacts\mvdfrm\UnityEngine.UIElementsModule.dll_3B76AB62A620F435.mvfrm
Library\Bee\artifacts\mvdfrm\UnityEngine.UIElementsNativeModule.dll_A55E7296BFA3766C.mvfrm
Library\Bee\artifacts\mvdfrm\UnityEngine.UIModule.dll_07649EF95E9508AE.mvfrm
Library\Bee\artifacts\mvdfrm\UnityEngine.UmbraModule.dll_1205EBE1AAD7E183.mvfrm
Library\Bee\artifacts\mvdfrm\UnityEngine.UNETModule.dll_76228D2F29F01712.mvfrm
Library\Bee\artifacts\mvdfrm\UnityEngine.UnityAnalyticsCommonModule.dll_067D18E5C3472DB6.mvfrm
Library\Bee\artifacts\mvdfrm\UnityEngine.UnityAnalyticsModule.dll_C93FEBD56DDB0C5B.mvfrm
Library\Bee\artifacts\mvdfrm\UnityEngine.UnityConnectModule.dll_452CB763FBC59CCF.mvfrm
Library\Bee\artifacts\mvdfrm\UnityEngine.UnityCurlModule.dll_7967E85328DD1E8B.mvfrm
Library\Bee\artifacts\mvdfrm\UnityEngine.UnityTestProtocolModule.dll_7200C29956FD7879.mvfrm
Library\Bee\artifacts\mvdfrm\UnityEngine.UnityWebRequestAssetBundleModule.dll_0DA05BE6B92C7B6C.mvfrm
Library\Bee\artifacts\mvdfrm\UnityEngine.UnityWebRequestAudioModule.dll_E33AAF802FC959F0.mvfrm
Library\Bee\artifacts\mvdfrm\UnityEngine.UnityWebRequestModule.dll_E84BC8420D2D84AA.mvfrm
Library\Bee\artifacts\mvdfrm\UnityEngine.UnityWebRequestTextureModule.dll_14B0AB7A9DE38DC5.mvfrm
Library\Bee\artifacts\mvdfrm\UnityEngine.UnityWebRequestWWWModule.dll_7B430EB45EF3E881.mvfrm
Library\Bee\artifacts\mvdfrm\UnityEngine.VehiclesModule.dll_39B69B8CE7F25D91.mvfrm
Library\Bee\artifacts\mvdfrm\UnityEngine.VFXModule.dll_B5BE92E30D41DCE2.mvfrm
Library\Bee\artifacts\mvdfrm\UnityEngine.VideoModule.dll_BC3AC433E04351B5.mvfrm
Library\Bee\artifacts\mvdfrm\UnityEngine.VirtualTexturingModule.dll_C9EB27059851F6F7.mvfrm
Library\Bee\artifacts\mvdfrm\UnityEngine.VRModule.dll_5A36C57F004F8E26.mvfrm
Library\Bee\artifacts\mvdfrm\UnityEngine.WindModule.dll_59CB206E6E17A002.mvfrm
Library\Bee\artifacts\mvdfrm\UnityEngine.XRModule.dll_8CF588838989DB84.mvfrm
Library\Bee\artifacts\mvdfrm\Unity.Android.Gradle.dll_ED2A712D0A293756.mvfrm
Library\Bee\artifacts\mvdfrm\Unity.Android.Types.dll_5AF9E85F0A438746.mvfrm
Library\Bee\artifacts\mvdfrm\UnityEditor.Android.Extensions.dll_3F249E0A998FD556.mvfrm
Library\Bee\artifacts\mvdfrm\UnityEditor.iOS.Extensions.Common.dll_127797B626B35FB3.mvfrm
Library\Bee\artifacts\mvdfrm\UnityEditor.iOS.Extensions.dll_56C59CB6B0728BC2.mvfrm
Library\Bee\artifacts\mvdfrm\UnityEditor.iOS.Extensions.Xcode.dll_1B08E9857DD93949.mvfrm
Library\Bee\artifacts\mvdfrm\UnityEditor.UWP.Extensions.dll_497474FC4288FA7D.mvfrm
Library\Bee\artifacts\mvdfrm\UnityEditor.WebGL.Extensions.dll_5920D95F2D724222.mvfrm
Library\Bee\artifacts\mvdfrm\UnityEditor.WindowsStandalone.Extensions.dll_A9B902DDDC912012.mvfrm
Library\Bee\artifacts\mvdfrm\Unity.Burst.Cecil.dll_8650D6E17856981B.mvfrm
Library\Bee\artifacts\mvdfrm\Unity.Burst.Cecil.Mdb.dll_BB09213DF1EF8A18.mvfrm
Library\Bee\artifacts\mvdfrm\Unity.Burst.Cecil.Pdb.dll_D25B99AD70A48B9B.mvfrm
Library\Bee\artifacts\mvdfrm\Unity.Burst.Cecil.Rocks.dll_16A06FF2ADA75D1B.mvfrm
Library\Bee\artifacts\mvdfrm\Unity.Plastic.Antlr3.Runtime.dll_5EC2185B7D0AB4FD.mvfrm
Library\Bee\artifacts\mvdfrm\Unity.Plastic.Newtonsoft.Json.dll_4FE691E681BC35E8.mvfrm
Library\Bee\artifacts\mvdfrm\Unity.Collections.LowLevel.ILSupport.dll_CB73B8BA0BBE1E81.mvfrm